/* XPM */
static char *_b9bf82318134876dd35e3bd723ac368[] = {
/* columns rows colors chars-per-pixel */
"16 16 97 2 ",
"   c #FBA814",
".  c #FBA914",
"X  c #FBA815",
"o  c #FBAA15",
"O  c #FBAB15",
"+  c #FCA914",
"@  c #FBAC15",
"#  c #FBAD15",
"$  c #FBAE15",
"%  c #FBAF15",
"&  c #FBAF16",
"*  c #FCAD15",
"=  c #FCAD16",
"-  c #FBB016",
";  c #FBB116",
":  c #FAB216",
">  c #FBB216",
",  c #FBB316",
"<  c #FDB016",
"1  c #FDB116",
"2  c #FEB116",
"3  c #FBB416",
"4  c #FBB516",
"5  c #FBB517",
"6  c #FBB617",
"7  c #FFB617",
"8  c #FFB717",
"9  c #FBB817",
"0  c #FBB917",
"q  c #FFB817",
"w  c #FFB917",
"e  c #FBBF14",
"r  c #FCB918",
"t  c #FBC213",
"y  c #F9C613",
"u  c #FAC613",
"i  c #FBC014",
"p  c #F9C813",
"a  c #FAC912",
"s  c #FAC913",
"d  c #F9CA12",
"f  c #FBCA12",
"g  c #FACA13",
"h  c #FBCA13",
"j  c #FACD12",
"k  c #FBCD12",
"l  c #FBCE12",
"z  c #FFC019",
"x  c #FFC319",
"c  c #FFC71A",
"v  c #FFC81A",
"b  c #FFCC1B",
"n  c #FFCD1B",
"m  c #FFCE1B",
"M  c #FFCF1B",
"N  c #FFE11E",
"B  c #FFE21F",
"V  c #FFE31F",
"C  c #FFE51F",
"Z  c #FFE720",
"A  c #F7EE21",
"S  c #F7EC22",
"D  c #F7EF22",
"F  c #FFE820",
"G  c #F8EC21",
"H  c #F8ED21",
"J  c #F8EF21",
"K  c #F8EC22",
"L  c #F8ED22",
"P  c #F8EE22",
"I  c #FAEE22",
"U  c #F7F022",
"Y  c #F7F122",
"T  c #F7F123",
"R  c #F5F223",
"E  c #F5F323",
"W  c #F7F322",
"Q  c #F7F223",
"!  c #F6F323",
"~  c #F7F323",
"^  c #F6F423",
"/  c #F7F423",
"(  c #F7F523",
")  c #F7F424",
"_  c #F8F122",
"`  c #FFF121",
"'  c #FDF022",
"]  c #FEF122",
"[  c #FFF222",
"{  c #FFF322",
"}  c #F8F423",
"|  c #F8F623",
" . c #FFF422",
".. c #FFF522",
"X. c #FFF622",
"o. c #FFF823",
"O. c None",
/* pixels */
"O.O.O.O.O.) Q S G A Q O.O.O.O.O.",
"O.O.O./ ` B c 9 r v Z ` Q O.O.O.",
"O.O.Q ` ,   @ @ , @ X , ..Q O.O.",
"O.Q ` X , 3 3 , @ , 3 , X ..Q O.",
"O.` , , , = q q q q 2 , , 3 ` O.",
") B X , 2 t j h h j i 2 , . C ) ",
"Q c @ 3 q j O.O.O.O.h 8 , @ n _ ",
"G 9 @ , q h O.O.O.O.u 8 , @ z P ",
"A r , , q h O.O.O.O.y 8 , @ z Q ",
"A v X 3 q j O.O.O.O.h q , X n Q ",
"Q C X 3 2 e h u u h e = 3 X C / ",
"O.` 3 @ , 2 8 8 8 8 2 , @ 9 A O.",
"O.! ..X , , , , , 3 3 @ = o./ O.",
"O.O.Q o.9 X X @ @ @ . 9 o./ O.O.",
"O.O.O.} P C n x c n F P Q O.O.O.",
"O.O.O.O.O./ Q P A Q / O.O.O.O.O."
};
