/* XPM */
static char *_9df9f1aeb17458cfede9453170d840f[] = {
/* columns rows colors chars-per-pixel */
"32 32 155 2 ",
"   c #FBAA15",
".  c #FBAB15",
"X  c #FBAC15",
"o  c #FBAD15",
"O  c #FBAE15",
"+  c #FBAF15",
"@  c #FBAD16",
"#  c #FBAE16",
"$  c #FBAF16",
"%  c #FCAE15",
"&  c #FCAF15",
"*  c #FCAD16",
"=  c #FAB016",
"-  c #FBB016",
";  c #FBB116",
":  c #FBB216",
">  c #FBB316",
",  c #FBB416",
"<  c #FBB617",
"1  c #FBB717",
"2  c #FBB817",
"3  c #FBB917",
"4  c #FBBA17",
"5  c #FFBA16",
"6  c #FFBB16",
"7  c #FFBE15",
"8  c #FFBC16",
"9  c #FFBE16",
"0  c #FABB18",
"q  c #FABC18",
"w  c #FBBC18",
"e  c #FABD18",
"r  c #FABE18",
"t  c #F5DF0D",
"y  c #F6DF0E",
"u  c #FFC015",
"i  c #FFC215",
"p  c #FFC416",
"a  c #FFC516",
"s  c #FFC616",
"d  c #FFC716",
"f  c #FFCA15",
"g  c #FFCB15",
"h  c #FFCC15",
"j  c #FAC019",
"k  c #FBC019",
"l  c #FAC119",
"z  c #FBC119",
"x  c #FAC219",
"c  c #FAC319",
"v  c #FAC419",
"b  c #FAC519",
"n  c #FAC51A",
"m  c #FAC61A",
"M  c #FBC61A",
"N  c #FAC71A",
"B  c #FAC81A",
"V  c #FAC91A",
"C  c #FAC91B",
"Z  c #F9CC1B",
"A  c #FACE1B",
"S  c #FACB1C",
"D  c #FACC1C",
"F  c #F9CE1C",
"G  c #FAD11C",
"H  c #FAD31D",
"J  c #F9D71E",
"K  c #F9DA1E",
"L  c #F9DC1F",
"P  c #F9DD1F",
"I  c #F9DE1F",
"U  c #F8DF1F",
"Y  c #F9DF1F",
"T  c #F5E10C",
"R  c #F5E00D",
"E  c #F7E10D",
"W  c #F7E00E",
"Q  c #F9E60B",
"!  c #F8E30C",
"~  c #F9E20D",
"^  c #F8E00E",
"/  c #F8E60C",
"(  c #F9E70C",
")  c #F9E80C",
"_  c #F8E220",
"`  c #F9E220",
"'  c #F8E320",
"]  c #F8E420",
"[  c #F9E420",
"{  c #F8E620",
"}  c #F8E721",
"|  c #F5EB21",
" . c #F6EB21",
".. c #F7EB21",
"X. c #F5EB22",
"o. c #F6EA22",
"O. c #F6EB22",
"+. c #F7EB22",
"@. c #F5ED21",
"#. c #F6EC21",
"$. c #F6ED21",
"%. c #F7ED21",
"&. c #F6EE21",
"*. c #F7EE21",
"=. c #F5EC22",
"-. c #F5ED22",
";. c #F6EC22",
":. c #F7EC22",
">. c #F6ED22",
",. c #F7ED22",
"<. c #F6EE22",
"1. c #F7EE22",
"2. c #F7EF22",
"3. c #F8E920",
"4. c #F9E821",
"5. c #F8EA21",
"6. c #F9EA21",
"7. c #F8EB21",
"8. c #F9EB21",
"9. c #F8ED21",
"0. c #F8EE21",
"q. c #F9EC22",
"w. c #F8ED22",
"e. c #F8EE22",
"r. c #F9EE22",
"t. c #F8EF22",
"y. c #F9EF22",
"u. c #F8F022",
"i. c #F9F022",
"p. c #F9F122",
"a. c #F8F222",
"s. c #F8F223",
"d. c #F9F323",
"f. c #FBF222",
"g. c #FAF323",
"h. c #FBF323",
"j. c #FCF323",
"k. c #FBF523",
"l. c #FDF423",
"z. c #FDF623",
"x. c #FCF723",
"c. c #FEF623",
"v. c #FFF623",
"b. c #FFF723",
"n. c #FDF823",
"m. c #FEF823",
"M. c #FFF923",
"N. c #FFF924",
"B. c #FFFA24",
"V. c #FFFB24",
"C. c #FFFC24",
"Z. c #FFFD24",
"A. c #FFFF24",
"S. c #FFFF25",
"D. c None",
/* pixels */
"D.D.D.D.D.D.D.D.D.D.D.D.@.@.@.w.f.@.y.+.D.D.D.D.D.D.D.D.D.D.D.D.",
"D.D.D.D.D.D.D.D.D.X.w.S.S.V.j.w.@.j.V.S.S.1.1.D.D.D.D.D.D.D.D.D.",
"D.D.D.D.D.D.D.@.l.S.h.` G x 0 0 0 0 n G ` h.S.@.+.D.D.D.D.D.D.D.",
"D.D.D.D.D.D.@.S.@.K 0 & . O O # O O O . O x P h.S.@.D.D.D.D.D.D.",
"D.D.D.D.D.w.S.{ x . & ; ; ; ; ; ; ; ; ; ; O O n q.S.@.D.D.D.D.D.",
"D.D.D.D.w.m.I : O ; ; ; ; ; ; ; ; ; ; ; ; ; ; O < ` S.@.D.D.D.D.",
"D.D.D.@.V.` O : , ; ; ; ; ; ; ; ; ; ; ; ; ; ; ; O : { S.@.D.D.D.",
"D.D.X.S.{ : O : ; ; ; ; ; ; ; ; ; ; ; ; ; ; ; ; : O , q.S.D.D.D.",
"D.D.l.f.x O ; ; ; ; ; ; ; ; ; ; ; ; : : ; ; ; ; : : . n d.@.D.D.",
"D.@.S.K O ; ; ; ; ; ; # * O # # # # O & # ; ; ; : O ; O ` S.1.D.",
"D.@.w.e O ; ; ; O : ; p h h f h f f f h p : ; ; : ; ; O x l.1.D.",
"D.S.` & ; ; ; ; ; O p / D./ ) / ) / / D.~ 8 # ; : O ; ; : { S.D.",
"@.S.G . : : ; ; ; # h D.D.D.D.D.D.D.D.D.^ d # ; ; ; O : . J S.+.",
"@.V.x . : : ; ; ; # f / D.D.D.D.D.D.D.D.R d # ; ; ; ; : & C S.1.",
"@.h.0 O O ; ; ; ; # f ) D.D.D.D.D.D.D.D.R d # ; ; ; : : & x V.X.",
"y.y.0 & ; ; ; ; ; # f / D.D.D.D.D.D.D.D.R d # ; ; ; : : & e l.w.",
"y.1.0 # ; ; ; ; ; O f ) D.D.D.D.D.D.D.D.R s O ; ; ; ; ; : e l.f.",
"1.h.5 O ; ; ; ; ; O f ) D.D.D.D.D.D.D.D.R s ; ; ; ; ; ; O x V.@.",
"1.V.n O ; ; ; ; ; # f / D.D.D.D.D.D.D.D.R s ; ; ; ; ; ; . C S.@.",
"X.S.G . ; ; ; ; ; # f D.D.D.D.D.D.D.D.D.R d # ; ; ; ; ; . K S.+.",
"D.S._ : ; ; ; ; ; # 8 ~ y y y y ^ W y ~ y 5 # ; O : : O ; q.V.D.",
"D.y.h.x O ; ; ; ; ; : 8 d d p p p d d d 5 ; ; ; : : : O C V.@.D.",
"D.X.S.P & ; ; ; ; ; : O # # # O # # # # # ; ; ; : : : O ` S.D.D.",
"D.D.@.h.n O ; ; ; ; ; ; ; ; ; : ; ; ; ; ; ; ; ; : : . Z m.w.D.D.",
"D.D.X.S.q.< O : : : : : : O : : ; ; ; ; : : : : : . q w.S.D.D.D.",
"D.D.D.@.S.{ < O : : O : : : O : ; ; ; ; & & : : . 0 q.S.@.D.D.D.",
"D.D.D.D.@.S.[ 4 . : : : : O : : ; ; ; ; : : : . e q.S.w.D.D.D.D.",
"D.D.D.D.D.@.S.w.B O O : : : : : ; , ; ; O . : Z w.S.w.D.D.D.D.D.",
"D.D.D.D.D.D.w.S.l.` n : . . O & O O . . , V [ m.S.@.D.D.D.D.D.D.",
"D.D.D.D.D.D.D.D.w.S.m.q.K F x e x n F K w.m.S.@.D.D.D.D.D.D.D.D.",
"D.D.D.D.D.D.D.D.D.X.@.V.S.S.S.V.V.S.S.S.l.w.D.D.D.D.D.D.D.D.D.D.",
"D.D.D.D.D.D.D.D.D.D.D.D.D.X.@.w.w.1.+.D.D.D.D.D.D.D.D.D.D.D.D.D."
};
